{
  "builders": [{
    "type": "amazon-ebs",
    "region": "ap-southeast-2",
    "source_ami": "ami-059b78064586da1b7",
    "instance_type": "m4.large",
    "ssh_username": "ubuntu",
    "ami_name": "nomad {{timestamp}}",
    "ami_groups": ["all"],
    "temporary_security_group_source_cidr": "11.4.10.8/32"
  }],
  "provisioners":  [
  {
    "type": "shell",
    "inline": [
      "sudo mkdir /ops",
      "sudo chmod 777 /ops"
    ]
  },
  {
    "type": "file",
    "source": "../shared",
    "destination": "/ops"
  },
  {
    "type": "file",
    "source": "../examples",
    "destination": "/ops"
  },
  {
    "type": "shell",
    "script": "../shared/scripts/setup.sh"
  }]
}
